[
    {
        "tools/auth": [
            [
                "get",
                "login",
                "/:userName/:passwd",
                "public"
            ],
            [
                "get",
                "logout",
                "",
                "public"
            ]
        ]
    },
    {
        "tools/blog": [
            [
                "get",
                "get",
                "",
                "public"
            ],
            [
                "post",
                "saveBlog"
            ],
            [
                "post",
                "reorderBlogs"
            ],
            [
                "post",
                "saveItem",
                "/:handle"
            ],
            [
                "post",
                "reorderItems",
                ""
            ],
            [
                "delete",
                "delBlog",
                "/:uid"
            ],
            [
                "delete",
                "delItem",
                "/:uid"
            ],
            [
                "post",
                "saveCat",
                ""
            ],
            [
                "get",
                "getItem",
                "/:handle",
                "public"
            ],
            [
                "get",
                "getBlogs",
                "",
                "public"
            ]
        ]
    },
    {
        "tools/cms": []
    },
    {
        "tools/dbadmin": []
    },
    {
        "tools/files": [
            [
                "get",
                "alignFiles"
            ],
            [
                "get",
                "getDirs",
                "",
                "public"
            ],
            [
                "get",
                "updWidth"
            ],
            [
                "get",
                "listFiles",
                ""
            ],
            [
                "get",
                "createDir",
                ""
            ],
            [
                "delete",
                "delDir",
                ""
            ],
            [
                "post",
                "uploadFile"
            ],
            [
                "delete",
                "delFile",
                "/:uid"
            ]
        ]
    },
    {
        "tools/infra": []
    },
    {
        "tools/stock": [
            [
                "get",
                "getDefs",
                "",
                "public"
            ],
            [
                "post",
                "saveCat",
                ""
            ],
            [
                "post",
                "saveCatItem",
                ""
            ],
            [
                "delete",
                "delCat",
                "/:uid"
            ],
            [
                "get",
                "delCatItem",
                ""
            ],
            [
                "post",
                "getStock",
                "",
                "public"
            ],
            [
                "post",
                "saveStock",
                ""
            ],
            [
                "post",
                "saveItem",
                ""
            ],
            [
                "delete",
                "delItem",
                ""
            ]
        ]
    },
    {
        "/local": [
            [
                "get",
                "get",
                "",
                "public"
            ]
        ]
    }
]